module gitlab.com/data-custodian/custodian-go

go 1.20

require (
	github.com/apache/pulsar-client-go v0.10.0
	github.com/golang-jwt/jwt v3.2.2+incompatible
	github.com/segmentio/kafka-go v0.4.39
	go.mongodb.org/mongo-driver v1.11.4
)

require (
	github.com/99designs/go-keychain v0.0.0-20191008050251-8e49817e8af4 // indirect
	github.com/99designs/keyring v1.2.1 // indirect
	github.com/AthenZ/athenz v1.10.39 // indirect
	github.com/DataDog/zstd v1.5.0 // indirect
	github.com/ardielle/ardielle-go v1.5.2 // indirect
	github.com/beorn7/perks v1.0.1 // indirect
	github.com/bits-and-blooms/bitset v1.4.0 // indirect
	github.com/cespare/xxhash/v2 v2.1.1 // indirect
	github.com/danieljoos/wincred v1.1.2 // indirect
	github.com/dvsekhvalnov/jose2go v1.5.0 // indirect
	github.com/godbus/dbus v0.0.0-20190726142602-4481cbc300e2 // indirect
	github.com/golang/protobuf v1.5.2 // indirect
	github.com/golang/snappy v0.0.1 // indirect
	github.com/gsterjov/go-libsecret v0.0.0-20161001094733-a6f4afe4910c // indirect
	github.com/klauspost/compress v1.15.9 // indirect
	github.com/konsorten/go-windows-terminal-sequences v1.0.3 // indirect
	github.com/linkedin/goavro/v2 v2.9.8 // indirect
	github.com/matttproud/golang_protobuf_extensions v1.0.1 // indirect
	github.com/montanaflynn/stats v0.0.0-20171201202039-1bf9dbcd8cbe // indirect
	github.com/mtibben/percent v0.2.1 // indirect
	github.com/pierrec/lz4 v2.0.5+incompatible // indirect
	github.com/pierrec/lz4/v4 v4.1.15 // indirect
	github.com/pkg/errors v0.9.1 // indirect
	github.com/prometheus/client_golang v1.11.1 // indirect
	github.com/prometheus/client_model v0.2.0 // indirect
	github.com/prometheus/common v0.26.0 // indirect
	github.com/prometheus/procfs v0.6.0 // indirect
	github.com/sirupsen/logrus v1.6.0 // indirect
	github.com/spaolacci/murmur3 v1.1.0 // indirect
	github.com/xdg-go/pbkdf2 v1.0.0 // indirect
	github.com/xdg-go/scram v1.1.1 // indirect
	github.com/xdg-go/stringprep v1.0.3 // indirect
	github.com/youmark/pkcs8 v0.0.0-20181117223130-1be2e3e5546d // indirect
	go.uber.org/atomic v1.7.0 // indirect
	golang.org/x/crypto v0.0.0-20220622213112-05595931fe9d // indirect
	golang.org/x/mod v0.5.1 // indirect
	golang.org/x/net v0.0.0-20220706163947-c90051bbdb60 // indirect
	golang.org/x/oauth2 v0.0.0-20210402161424-2e8d93401602 // indirect
	golang.org/x/sync v0.0.0-20210220032951-036812b2e83c // indirect
	golang.org/x/sys v0.0.0-20220520151302-bc2c85ada10a // indirect
	golang.org/x/term v0.0.0-20210927222741-03fcf44c2211 // indirect
	golang.org/x/text v0.3.7 // indirect
	google.golang.org/appengine v1.6.7 // indirect
	google.golang.org/protobuf v1.26.0 // indirect
)
